3/15/2022 6:13:40 AM: Exception occured. Message: Microsoft.AspNetCore.Mvc.ModelBinding.ModelStateDictionary+ValueEnumerable. Exception Details: 1
3/15/2022 6:13:54 AM: Exception occured. Message: Microsoft.AspNetCore.Mvc.ModelBinding.ModelStateDictionary+ValueEnumerable. Exception Details: 1
3/15/2022 6:14:15 AM: Exception occured. Message: Microsoft.AspNetCore.Mvc.ModelBinding.ModelStateDictionary+ValueEnumerable. Exception Details: 1
3/15/2022 6:15:38 AM: Exception occured. Message: User logged in.. Exception Details: 
3/15/2022 6:52:37 AM: Exception occured. Message: User logged in.. Exception Details: 
3/15/2022 11:13:11 AM: Exception occured. Message: User logged in.. Exception Details: 
3/15/2022 2:17:29 PM: Exception occured. Message: User logged in.. Exception Details: 
