2022-03-23T10:31:39.3598064+07:00  [INF] DB tables already exist. Exit install (3b5ca34b)
2022-03-23T10:31:40.0203123+07:00  [INF] User profile is available. Using '"C:\Users\asus\AppData\Local\ASP.NET\DataProtection-Keys"' as key repository and Windows DPAPI to encrypt keys at rest. (7ac5e29c)
2022-03-23T10:31:42.6508844+07:00  [ERR] Index was outside the bounds of the array. (3b5ca34b)
System.IndexOutOfRangeException: Index was outside the bounds of the array.
   at Hangfire.MySql.MySqlStorage.<>c.<ToString>b__14_1(String[] x)
   at System.Linq.Utilities.<>c__DisplayClass2_0`3.<CombineSelectors>b__0(TSource x)
   at System.Linq.Enumerable.SelectArrayIterator`2.MoveNext()
   at System.Linq.Enumerable.ToDictionary[TSource,TKey,TElement](IEnumerable`1 source, Func`2 keySelector, Func`2 elementSelector, IEqualityComparer`1 comparer)
   at Hangfire.MySql.MySqlStorage.ToString()
2022-03-23T10:31:42.6509778+07:00  [INF] Starting Hangfire Server using job storage: '<Connection string can not be parsed>' (3b5ca34b)
2022-03-23T10:31:42.6513047+07:00  [INF] Using the following options for SQL Server job storage: (3b5ca34b)
2022-03-23T10:31:42.6516862+07:00  [INF]     Queue poll interval: 00:00:15. (3b5ca34b)
2022-03-23T10:31:42.6518255+07:00  [INF] Using the following options for Hangfire Server:
    Worker count: 20
    Listening queues: 'default'
    Shutdown timeout: 00:00:15
    Schedule polling interval: 00:00:15 (3b5ca34b)
2022-03-23T10:31:46.9626450+07:00  [INF] Server desktop-q7q2l73:21568:b32d6ebc successfully announced in 3787.556 ms (3b5ca34b)
2022-03-23T10:31:46.9663235+07:00  [INF] Server desktop-q7q2l73:21568:b32d6ebc is starting the registered dispatchers: ServerWatchdog, ServerJobCancellationWatcher, ExpirationManager, CountersAggregator, Worker, DelayedJobScheduler, RecurringJobScheduler... (3b5ca34b)
2022-03-23T10:31:46.9739195+07:00  [INF] Server desktop-q7q2l73:21568:b32d6ebc all the dispatchers started (3b5ca34b)
2022-03-23T10:31:47.6998260+07:00  [INF] 2 servers were removed due to timeout (3b5ca34b)
2022-03-23T10:31:48.1273609+07:00  [INF] Now listening on: "https://localhost:7057" (d826f4b8)
2022-03-23T10:31:48.1274262+07:00  [INF] Now listening on: "http://localhost:5057" (d826f4b8)
2022-03-23T10:31:48.1300897+07:00  [INF] Application started. Press Ctrl+C to shut down. (dcaefe54)
2022-03-23T10:31:48.1303284+07:00  [INF] Hosting environment: "Development" (c3307c92)
2022-03-23T10:31:48.1303766+07:00  [INF] Content root path: "D:\Algostudio\SemarAutomation\SemarAutomation\" (b5d60022)
2022-03-23T10:32:46.5354917+07:00  [INF] DB tables already exist. Exit install (3b5ca34b)
2022-03-23T10:32:47.1101873+07:00  [INF] User profile is available. Using '"C:\Users\asus\AppData\Local\ASP.NET\DataProtection-Keys"' as key repository and Windows DPAPI to encrypt keys at rest. (7ac5e29c)
2022-03-23T10:32:50.8006291+07:00  [ERR] Index was outside the bounds of the array. (3b5ca34b)
System.IndexOutOfRangeException: Index was outside the bounds of the array.
   at Hangfire.MySql.MySqlStorage.<>c.<ToString>b__14_1(String[] x)
   at System.Linq.Utilities.<>c__DisplayClass2_0`3.<CombineSelectors>b__0(TSource x)
   at System.Linq.Enumerable.SelectArrayIterator`2.MoveNext()
   at System.Linq.Enumerable.ToDictionary[TSource,TKey,TElement](IEnumerable`1 source, Func`2 keySelector, Func`2 elementSelector, IEqualityComparer`1 comparer)
   at Hangfire.MySql.MySqlStorage.ToString()
2022-03-23T10:32:50.8030082+07:00  [INF] Starting Hangfire Server using job storage: '<Connection string can not be parsed>' (3b5ca34b)
2022-03-23T10:32:50.8048431+07:00  [INF] Using the following options for SQL Server job storage: (3b5ca34b)
2022-03-23T10:32:50.8068168+07:00  [INF]     Queue poll interval: 00:00:15. (3b5ca34b)
2022-03-23T10:32:50.8087770+07:00  [INF] Using the following options for Hangfire Server:
    Worker count: 20
    Listening queues: 'default'
    Shutdown timeout: 00:00:15
    Schedule polling interval: 00:00:15 (3b5ca34b)
2022-03-23T10:32:51.4046454+07:00  [INF] Now listening on: "https://localhost:7057" (d826f4b8)
2022-03-23T10:32:51.4079150+07:00  [INF] Now listening on: "http://localhost:5057" (d826f4b8)
2022-03-23T10:32:51.4124596+07:00  [INF] Application started. Press Ctrl+C to shut down. (dcaefe54)
2022-03-23T10:32:51.4150125+07:00  [INF] Hosting environment: "Development" (c3307c92)
2022-03-23T10:32:51.4168066+07:00  [INF] Content root path: "D:\Algostudio\SemarAutomation\SemarAutomation\" (b5d60022)
2022-03-23T10:32:51.6013010+07:00  [INF] Server desktop-q7q2l73:21372:d7fb6c54 successfully announced in 633.3911 ms (3b5ca34b)
2022-03-23T10:32:51.6149620+07:00  [INF] Server desktop-q7q2l73:21372:d7fb6c54 is starting the registered dispatchers: ServerWatchdog, ServerJobCancellationWatcher, ExpirationManager, CountersAggregator, Worker, DelayedJobScheduler, RecurringJobScheduler... (3b5ca34b)
2022-03-23T10:32:51.7986503+07:00  [INF] Server desktop-q7q2l73:21372:d7fb6c54 all the dispatchers started (3b5ca34b)
2022-03-23T10:33:06.7202324+07:00 0HMGCFN7O44B9:00000001 [INF] Request starting HTTP/2 GET https://localhost:7057/ - - (ca22a1cb)
2022-03-23T10:33:06.8124401+07:00 0HMGCFN7O44B9:00000001 [INF] Authorization failed. "These requirements were not met:
DenyAnonymousAuthorizationRequirement: Requires an authenticated user." (92d7f7d3)
2022-03-23T10:33:26.4766849+07:00 0HMGCFN7O44B9:00000001 [INF] AuthenticationScheme: "Identity.Application" was challenged. (d45f1f38)
2022-03-23T10:33:33.0290003+07:00 0HMGCFN7O44B9:00000001 [INF] Request finished HTTP/2 GET https://localhost:7057/ - - - 302 0 - 26309.5054ms (791a596a)
2022-03-23T10:33:33.6204010+07:00 0HMGCFN7O44B9:00000003 [INF] Request starting HTTP/2 GET https://localhost:7057/login?ReturnUrl=%2F - - (ca22a1cb)
2022-03-23T10:33:34.3813462+07:00 0HMGCFN7O44B9:00000003 [INF] Executing endpoint '"/Account/Login"' (500cc934)
2022-03-23T10:33:34.4754530+07:00 0HMGCFN7O44B9:00000003 [INF] Route matched with "{page = \"/Account/Login\", area = \"Identity\", action = \"\", controller = \"\"}". Executing page "/Account/Login" (547e620f)
2022-03-23T10:33:37.5938868+07:00 0HMGCFN7O44B9:00000003 [INF] Executing handler method "SemarAutomation.Areas.Identity.Pages.Account.LoginModel.OnGetAsync" - ModelState is Valid (cd3ef7ec)
2022-03-23T10:33:37.7060483+07:00 0HMGCFN7O44B9:00000003 [INF] Executed handler method "OnGetAsync", returned result "Microsoft.AspNetCore.Mvc.RazorPages.PageResult". (90fdc39c)
2022-03-23T10:33:38.1494051+07:00 0HMGCFN7O44B9:00000003 [INF] Executed page "/Account/Login" in 3669.7754ms (02e01280)
2022-03-23T10:33:38.1497574+07:00 0HMGCFN7O44B9:00000003 [INF] Executed endpoint '"/Account/Login"' (99874f2b)
2022-03-23T10:33:38.2531896+07:00 0HMGCFN7O44B9:00000003 [INF] Request finished HTTP/2 GET https://localhost:7057/login?ReturnUrl=%2F - - - 200 - text/html;+charset=utf-8 4632.7143ms (791a596a)
2022-03-23T10:33:39.7058674+07:00 0HMGCFN7O44BA:00000001 [INF] Request starting HTTP/2 GET https://localhost:7057/_framework/aspnetcore-browser-refresh.js - - (ca22a1cb)
2022-03-23T10:33:39.7108668+07:00 0HMGCFN7O44BA:00000001 [INF] Request finished HTTP/2 GET https://localhost:7057/_framework/aspnetcore-browser-refresh.js - - - 200 11988 application/javascript;+charset=utf-8 5.0305ms (791a596a)
2022-03-23T10:35:01.1737337+07:00 0HMGCFN7O44BC:00000002 [INF] Request starting HTTP/1.1 GET https://localhost:7057/api/claims/187545?year=2022&quarter=Q1 application/json - (ca22a1cb)
2022-03-23T10:35:01.1773113+07:00 0HMGCFN7O44BC:00000002 [INF] Executing endpoint '"SemarAutomation.Controllers.API.SemarApiController.Claims (SemarAutomation)"' (500cc934)
2022-03-23T10:35:01.2017242+07:00 0HMGCFN7O44BC:00000002 [INF] Route matched with "{action = \"Claims\", controller = \"SemarApi\", page = \"\", area = \"\"}". Executing controller action with signature "System.Threading.Tasks.Task`1[Microsoft.AspNetCore.Mvc.IActionResult] Claims(System.String, System.String, System.String)" on controller "SemarAutomation.Controllers.API.SemarApiController" ("SemarAutomation"). (122b2fdf)
2022-03-23T10:35:09.3079883+07:00 0HMGCFN7O44BC:00000002 [INF] Entity Framework Core "6.0.2" initialized '"ApplicationDbContext"' using provider '"Pomelo.EntityFrameworkCore.MySql":"6.0.1"' with options: "ServerVersion 10.4.13-mariadb " (d2805559)
2022-03-23T10:35:10.1812084+07:00 0HMGCFN7O44BC:00000002 [INF] Executed DbCommand ("236"ms) [Parameters=["@__id_0='?' (Size = 4000)"], CommandType='Text', CommandTimeout='30']"
""SELECT `a`.`Id` AS `ApprovalId`, `p`.`Kategori` AS `TipeAktivitas`, `a`.`CreatedAt` AS `ClaimDate`
FROM `ApprovalTask` AS `a`
INNER JOIN `Proposal` AS `p` ON `a`.`EntitlementId` = `p`.`Id`
WHERE ((`a`.`Title` = 'SFM Claim') AND (`a`.`Status` = 'Closed')) AND (`p`.`AccountNumber` = @__id_0)" (0723d8ff)
2022-03-23T10:35:10.2231420+07:00 0HMGCFN7O44BC:00000002 [INF] Executed DbCommand ("24"ms) [Parameters=[""], CommandType='Text', CommandTimeout='30']"
""SELECT `s`.`Name`
FROM `SFMProposalType` AS `s`" (0723d8ff)
2022-03-23T10:35:10.2274130+07:00 0HMGCFN7O44BC:00000002 [INF] Executing "OkObjectResult", writing value of type '"SemarAutomation.Models.ViewModels.GlobalResponse"'. (605b4265)
2022-03-23T10:35:10.2585253+07:00 0HMGCFN7O44BC:00000002 [INF] Executed action "SemarAutomation.Controllers.API.SemarApiController.Claims (SemarAutomation)" in 9056.4072ms (afa2e885)
2022-03-23T10:35:10.2586058+07:00 0HMGCFN7O44BC:00000002 [INF] Executed endpoint '"SemarAutomation.Controllers.API.SemarApiController.Claims (SemarAutomation)"' (99874f2b)
2022-03-23T10:35:10.2639557+07:00 0HMGCFN7O44BC:00000002 [INF] Request finished HTTP/1.1 GET https://localhost:7057/api/claims/187545?year=2022&quarter=Q1 application/json - - 200 280 application/json;+charset=utf-8 9090.2213ms (791a596a)
