3/17/2022 10:59:10 AM: Exception occured. Message: User logged in.. Exception Details: 
3/17/2022 1:23:08 PM: Exception occured. Message: User logged in.. Exception Details: 
3/17/2022 1:24:52 PM: Exception occured. Message: User logged in.. Exception Details: 
