3/11/2022 5:56:58 AM: Exception occured. Message: User logged in.. Exception Details: 
3/11/2022 6:00:25 AM: Exception occured. Message: User logged in.. Exception Details: 
3/11/2022 6:21:20 AM: Exception occured. Message: User logged in.. Exception Details: 
3/11/2022 6:30:55 AM: Exception occured. Message: User logged in.. Exception Details: 
3/11/2022 6:32:05 AM: Exception occured. Message: User logged in.. Exception Details: 
3/11/2022 6:40:19 AM: Exception occured. Message: User logged in.. Exception Details: 
3/11/2022 7:56:34 AM: Exception occured. Message: User logged in.. Exception Details: 
3/11/2022 9:39:24 AM: Exception occured. Message: User logged in.. Exception Details: 
3/11/2022 9:45:22 AM: Exception occured. Message: User logged in.. Exception Details: 
3/11/2022 9:45:58 AM: Exception occured. Message: User logged in.. Exception Details: 
3/11/2022 10:06:48 AM: Exception occured. Message: User logged in.. Exception Details: 
3/11/2022 10:08:59 AM: Exception occured. Message: User logged in.. Exception Details: 
3/11/2022 10:11:46 AM: Exception occured. Message: User logged in.. Exception Details: 
3/11/2022 10:15:00 AM: Exception occured. Message: User logged in.. Exception Details: 
3/11/2022 12:58:39 PM: Exception occured. Message: User logged in.. Exception Details: 
3/11/2022 1:02:12 PM: Exception occured. Message: User logged in.. Exception Details: 
3/11/2022 1:02:54 PM: Exception occured. Message: User logged in.. Exception Details: 
3/11/2022 1:04:34 PM: Exception occured. Message: User logged in.. Exception Details: 
3/11/2022 1:07:05 PM: Exception occured. Message: User logged in.. Exception Details: 
3/11/2022 1:14:17 PM: Exception occured. Message: User logged in.. Exception Details: 
3/11/2022 1:15:04 PM: Exception occured. Message: User logged in.. Exception Details: 
